cons,income,price,temp,type
0.386,78,0.27,41,vanilla
0.374,79,0.282,56,chocolate
0.393,81,0.277,63,strawberry
0.425,80,0.28,68,chocolate
0.406,76,0.272,69,chocolate
0.344,78,0.262,65,chocolate
0.327,82,0.275,61,strawberry
0.288,79,0.267,47,vanilla
0.269,76,0.265,32,strawberry
0.256,79,0.277,24,vanilla
0.286,82,0.282,28,chocolate
0.298,85,0.27,26,strawberry
0.329,86,0.272,32,vanilla
0.318,83,0.287,40,vanilla
0.381,84,0.277,55,vanilla
0.381,82,0.287,63,chocolate
0.47,80,0.28,72,strawberry
0.443,78,0.277,72,strawberry
0.386,84,0.277,67,strawberry
0.342,86,0.277,60,vanilla
0.319,85,0.292,44,vanilla
0.307,87,0.287,40,chocolate
0.284,94,0.277,32,strawberry
0.326,92,0.285,27,chocolate
0.309,95,0.282,28,strawberry
0.359,96,0.265,33,vanilla
0.376,94,0.265,41,chocolate
0.416,96,0.265,52,strawberry
0.437,91,0.268,64,strawberry
0.548,90,0.26,71,strawberry
